-96 272 -32 568
88 -48 48 -56 -56 -64 584
-32 -32 912
-16 -32 -48 -8 856
48 -40 -32 -64 -24 -32 -40 -48 -16 576
-480 -240 -160 -88
-960 24
992
-32 -56 256 -120 -24 -32 -16 400
56 -40 -48 -56 -176 576
-24 -24 -24 -24 -24 832
